<?xml version="1.0" encoding="utf-8"?>
<!-- Generator: Adobe Illustrator 15.1.0, SVG Export Plug-In . SVG Version: 6.00 Build 0)  -->
<!DOCTYPE svg PUBLIC "-//W3C//DTD SVG 1.1//EN" "http://www.w3.org/Graphics/SVG/1.1/DTD/svg11.dtd">
<svg version="1.1" id="Ebene_1" xmlns="http://www.w3.org/2000/svg" xmlns:xlink="http://www.w3.org/1999/xlink" x="0px" y="0px"
	 width="100px" height="100px" viewBox="0 0 100 100" enable-background="new 0 0 100 100" xml:space="preserve">
<g>
	<path d="M56.245,39.053c0.884,0,1.602-0.716,1.602-1.6c0-0.885-0.718-1.601-1.602-1.601c-0.885,0-1.602,0.716-1.602,1.601
		C54.646,38.337,55.36,39.053,56.245,39.053"/>
	<path d="M43.753,39.053c0.884,0,1.601-0.716,1.601-1.6c0-0.885-0.717-1.601-1.601-1.601s-1.602,0.716-1.602,1.601
		C42.151,38.337,42.869,39.053,43.753,39.053"/>
	<path d="M55.035,21.373h-0.192c-0.191-1.19-1.133-1.889-2.605-1.889H47.76c-1.578,0-2.45,0.645-2.611,1.907h-0.188
		c-2.001,0.003-5.784,1.219-5.784,5.794v9.15c0,2.001,1.209,5.787,5.784,5.795l0.664,0.001l-3.602,4.925
		c-0.261,0.356-0.184,0.856,0.173,1.116c0.144,0.104,0.309,0.154,0.472,0.154c0.246,0,0.489-0.113,0.646-0.327l0.046-0.062h13.282
		L56.687,48c0.155,0.214,0.397,0.327,0.646,0.327c0.163,0,0.328-0.05,0.472-0.154c0.355-0.26,0.434-0.76,0.172-1.116l-3.59-4.909
		l0.652,0.001c0.061,0,1.467-0.008,2.865-0.711c1.332-0.668,2.92-2.09,2.92-5.065V27.15C60.822,25.152,59.615,21.373,55.035,21.373z
		 M47.76,21.021h4.478c1.023,0,1.109,0.424,1.109,0.82c0,0.445,0,0.867-1.109,0.867H47.76c-1.108,0-1.108-0.273-1.108-0.873
		C46.65,21.328,46.65,21.021,47.76,21.021z M55.472,46.34H44.525l0.91-1.245h9.126L55.472,46.34z M53.394,43.497h-6.789l0.996-1.361
		l4.803,0.008L53.394,43.497z M59.226,36.372c0,4.038-3.756,4.176-4.188,4.179l-10.074-0.018c-4.042-0.007-4.187-3.771-4.188-4.197
		v-9.15c0-4.042,3.764-4.192,4.189-4.196l0.343-0.001c0.267,0.636,0.905,1.258,2.454,1.258h4.479c1.229,0,2.052-0.448,2.421-1.274
		l0.392-0.001c4.028,0,4.172,3.755,4.176,4.18v9.22H59.226z"/>
	<path d="M55.276,34.176l-10.556-0.01c-1.948-0.002-2.655-1.59-2.655-2.657v-4.578c0-1.297,1.058-1.769,1.768-1.769l11.441-0.011
		c1.951,0,2.656,1.587,2.656,2.653v3.718C57.933,33.47,56.345,34.176,55.276,34.176z M55.278,26.687l-11.443,0.011
		c-0.233,0.012-0.233,0.119-0.233,0.233v4.578c0.007,0.332,0.13,1.121,1.122,1.122l10.549,0.01c0.34-0.007,1.125-0.131,1.125-1.118
		v-3.718C56.39,27.474,56.269,26.687,55.278,26.687z"/>
</g>
<g>
	<path d="M39.493,69.167L35.855,58.27h1.395l0.255,1.105l2.771,8.415h0.103l3.06-8.347l0.272-1.174h1.359l-3.995,10.897H39.493z"/>
	<path d="M54.336,66.124c0,2.074-1.49,3.111-4.473,3.111c-0.997,0-1.797-0.023-2.397-0.068h-0.017l0.085-3.281l-0.085-7.616
		l3.027-0.017c1.021,0,1.806,0.227,2.355,0.68c0.549,0.454,0.824,1.111,0.824,1.973c0,0.611-0.142,1.139-0.425,1.581
		c-0.284,0.441-0.687,0.776-1.207,1.003C53.565,63.795,54.336,64.674,54.336,66.124z M52.211,67.569
		c0.499-0.352,0.748-0.855,0.748-1.514c0-1.11-0.697-1.745-2.091-1.903l-2.093,0.017l-0.018,1.598l0.052,2.278
		c0.441,0.034,0.86,0.051,1.258,0.051C50.998,68.096,51.712,67.921,52.211,67.569z M51.777,59.774
		c-0.322-0.266-0.847-0.399-1.574-0.399h-1.377l-0.034,3.655l1.872,0.051c1.065-0.249,1.598-0.924,1.598-2.023
		C52.262,60.469,52.101,60.041,51.777,59.774z"/>
	<path d="M64.145,66.124c0,2.074-1.489,3.111-4.47,3.111c-0.997,0-1.797-0.023-2.397-0.068h-0.017l0.085-3.281l-0.085-7.616
		l3.026-0.017c1.02,0,1.805,0.227,2.354,0.68c0.549,0.454,0.824,1.111,0.824,1.973c0,0.611-0.142,1.139-0.425,1.581
		c-0.284,0.441-0.687,0.776-1.207,1.003C63.375,63.795,64.145,64.674,64.145,66.124z M62.021,67.569
		c0.499-0.352,0.748-0.855,0.748-1.514c0-1.11-0.697-1.745-2.091-1.903l-2.091,0.017l-0.018,1.598l0.052,2.278
		c0.441,0.034,0.86,0.051,1.258,0.051C60.808,68.096,61.521,67.921,62.021,67.569z M61.587,59.774
		c-0.322-0.266-0.847-0.399-1.572-0.399h-1.377l-0.034,3.655l1.87,0.051c1.065-0.249,1.598-0.924,1.598-2.023
		C62.071,60.469,61.91,60.041,61.587,59.774z"/>
</g>
</svg>
